Data Viz
…
Mapas (Maps)

Para poder visualizar la información en un mapa es necesario contar con información a un segundo nivel de agregación. Así, si lo que estamos analizando son diputados nacioanles de una provincia, el nivel de agregación deberían ser los departamentos. Si en cambio estamos analizando elecciones a presidente, el nivel de agregación deberían ser las provincias. Un ejemplo del primer caso

(In order to display the information on a map, it is necessary to have information at a second level of aggregation. Thus, if what we are analyzing national deputies election in a province, the level of aggregation should be the departments. If instead we are analyzing presidential elections, the level of aggregation should be the provinces. An example of the first case)

caba_2019_departamento <- get_election_data(district = "caba", category = "dip", round = "gral", year = 2019,
                  level = "departamento")

caba_2019_departamento
#> # A tibble: 120 x 10
#> # Groups:   codprov, depto, coddepto [15]
#>    category round  year codprov name_prov depto  coddepto electores listas votos
#>    <chr>    <chr> <dbl> <chr>   <chr>     <chr>  <chr>        <dbl> <chr>  <dbl>
#>  1 dip      gral   2019 01      CABA      Comun~ 001              0 00016   1274
#>  2 dip      gral   2019 01      CABA      Comun~ 001              0 00024   5937
#>  3 dip      gral   2019 01      CABA      Comun~ 001              0 00036   6725
#>  4 dip      gral   2019 01      CABA      Comun~ 001              0 00037  42497
#>  5 dip      gral   2019 01      CABA      Comun~ 001              0 00050  65277
#>  6 dip      gral   2019 01      CABA      Comun~ 001              0 00108   2260
#>  7 dip      gral   2019 01      CABA      Comun~ 001              0 blanc~  4369
#>  8 dip      gral   2019 01      CABA      Comun~ 001              0 nulos      0
#>  9 dip      gral   2019 01      CABA      Comun~ 002              0 00016    854
#> 10 dip      gral   2019 01      CABA      Comun~ 002              0 00024   4557
#> # ... with 110 more rows
…
